((0, 125.26666666666667, 4.594209467215935), (1.989323707150383, 187.9, 4.594209467215935), (1.989323707150383, 469.75, 4.594209467215935))

((0, 129.86666666666667, 4.594209467215935), (1.989323707150383, 194.8, 4.594209467215935), (1.989323707150383, 487.0, 4.594209467215935))

((0, 136.96666666666667, 4.594209467215935), (1.989323707150383, 205.45, 4.594209467215935), (1.989323707150383, 513.625, 4.594209467215935))

((0, 138.23333333333332, 4.594209467215935), (1.989323707150383, 207.34999999999997, 4.594209467215935), (1.989323707150383, 518.3749999999999, 4.594209467215935))

((0, 138.0, 4.594209467215935), (1.989323707150383, 207.0, 4.594209467215935), (1.989323707150383, 517.5, 4.594209467215935))

((0, 143.56666666666666, 4.594209467215935), (1.989323707150383, 215.35, 4.594209467215935), (1.989323707150383, 538.375, 4.594209467215935))

((0, 152.0, 4.594209467215935), (1.989323707150383, 228.0, 4.594209467215935), (1.989323707150383, 570.0, 4.594209467215935))

((0, 152.0, 4.594209467215935), (1.989323707150383, 228.0, 4.594209467215935), (1.989323707150383, 570.0, 4.594209467215935))

((0, 139.83333333333334, 4.594209467215935), (1.989323707150383, 209.75, 4.594209467215935), (1.989323707150383, 524.375, 4.594209467215935))

((0, 142.26666666666668, 4.594209467215935), (1.989323707150383, 213.40000000000003, 4.594209467215935), (1.989323707150383, 533.5000000000001, 4.594209467215935))