run,makespan
1,138
2,198
3,126
4,276
5,380
6,138
7,312
8,386
9,388
10,132
11,136
12,308
13,228
14,304
15,148
16,410
17,312
18,368
19,228
20,222
21,302
22,144
23,142
24,146
25,372
26,144
27,142
28,148
29,142
30,138
31,422
32,344
33,140
34,132
35,368
36,392
37,414
38,370
39,374
40,136
41,292
42,328
43,228
44,332
45,406
46,240
47,388
48,214
49,142
50,404
51,146
52,286
53,256
54,234
55,134
56,142
57,244
58,138
59,138
60,292
61,300
62,304
63,302
64,276
65,238
66,140
67,286
68,208
69,290
70,294
71,136
72,248
73,210
74,284
75,352
76,338
77,296
78,368
79,270
80,358
81,132
82,130
83,350
84,358
85,346
86,390
87,140
88,346
