run,makespan
1,4353
2,4209
3,4201
4,3941
5,4165
6,3998
7,3946
8,3873
9,3894
10,3926
11,4148
12,3905
13,4141
14,3935
15,3881
16,4147
17,3901
18,4124
19,3993
20,4153
21,3899
22,4148
23,3845
24,4161
25,3906
26,4190
