run,makespan
1,8824
2,7827
3,8102
4,9013
5,4179
6,4195
7,8806
8,7940
9,6618
10,8152
11,7586
12,8758
13,8023
14,8721
15,4134
16,4192
17,8755
18,8956
19,7143
20,8032
21,7380
22,6693
23,7069
24,7190
25,4217
26,3911
